---
source: verdad/tests/examples.rs
expression: errors
input_file: examples/errors/bad_call.vd
---
error: mismatched types
  ┌─ bad_call.vd:8:17
  │
8 │ fn invalid() -> Never {
  │                 ^^^^^ expected type `Never` because of this
9 │     False
  │     ^^^^^ expected type `Never`, found type `Bool`


