---
source: verdad/tests/examples.rs
expression: errors
input_file: examples/errors/bad_ind_keyword.vd
---
error: syntax error
  ┌─ bad_ind_keyword.vd:1:1
  │
1 │ in Bool {True, False}
  │ ^^ here: syntax error


